Ten things to know beyond base R
…
(3) Estimate the mean of the logged numeric vector mean(...)

With this order of operations in mind, now consider the following piped code, which takes a numeric vector c(1, 3, 9), calculates the log(), and then estimates the mean(). Hopefully you notice that, in contrast to the nested code above, the code below is linear; in other words, the code appears in the same order as the operations are performed.

c(1, 3, 9) %>%
  log() %>%
  mean()
#> [1] 1.098612

2. The tibble

R is my favorite programming language because nearly everyone who uses it either works with data frames or is very familiar with them. With all of this use and attention, it is hardly surprising then that there would be some minor improvements to the traditional data.frame. And that’s exactly what the {tibble} package does. Tibbles (class tbl_df) are a special kind of data frame that have desirable properties for printing and joining. And because they inherit the data.frame class, they also behave like data frames 99.9% (and, seriously, I wouldn’t worry about the .1%).

(mtcars <- tibble::as_tibble(mtcars))
#> # A tibble: 32 x 11
#>     mpg   cyl  disp    hp  drat    wt  qsec    vs    am  gear  carb
#>   <dbl> <dbl> <dbl> <dbl> <dbl> <dbl> <dbl> <dbl> <dbl> <dbl> <dbl>
#> 1  21       6   160   110  3.9   2.62  16.5     0     1     4     4
#> 2  21       6   160   110  3.9   2.88  17.0     0     1     4     4
#> 3  22.8     4   108    93  3.85  2.32  18.6     1     1     4     1
#> 4  21.4     6   258   110  3.08  3.22  19.4     1     0     3     1
#> 5  18.7     8   360   175  3.15  3.44  17.0     0     0     3     2
#> # … with 27 more rows

3. Select, filter, arrange

The most basic {dplyr} functions allow users to easily select columns,

dplyr::select(mtcars, cyl, wt, mpg, gear)
#> # A tibble: 32 x 4
#>     cyl    wt   mpg  gear
#>   <dbl> <dbl> <dbl> <dbl>
#> 1     6  2.62  21       4
#> 2     6  2.88  21       4
#> 3     4  2.32  22.8     4
#> 4     6  3.22  21.4     3
#> 5     8  3.44  18.7     3
#> # … with 27 more rows

filter rows,

dplyr::filter(mtcars, cyl == 4, mpg >= 10)
#> # A tibble: 11 x 11
#>     mpg   cyl  disp    hp  drat    wt  qsec    vs    am  gear  carb
#>   <dbl> <dbl> <dbl> <dbl> <dbl> <dbl> <dbl> <dbl> <dbl> <dbl> <dbl>
#> 1  22.8     4 108      93  3.85  2.32  18.6     1     1     4     1
#> 2  24.4     4 147.     62  3.69  3.19  20       1     0     4     2
#> 3  22.8     4 141.     95  3.92  3.15  22.9     1     0     4     2
#> 4  32.4     4  78.7    66  4.08  2.2   19.5     1     1     4     1
#> 5  30.4     4  75.7    52  4.93  1.62  18.5     1     1     4     2
#> # … with 6 more rows

and arrange rows.

dplyr::arrange(mtcars, dplyr::desc(mpg))
#> # A tibble: 32 x 11
#>     mpg   cyl  disp    hp  drat    wt  qsec    vs    am  gear  carb
#>   <dbl> <dbl> <dbl> <dbl> <dbl> <dbl> <dbl> <dbl> <dbl> <dbl> <dbl>
#> 1  33.9     4  71.1    65  4.22  1.84  19.9     1     1     4     1
#> 2  32.4     4  78.7    66  4.08  2.2   19.5     1     1     4     1
#> 3  30.4     4  75.7    52  4.93  1.62  18.5     1     1     4     2
#> 4  30.4     4  95.1   113  3.77  1.51  16.9     1     1     5     2
#> 5  27.3     4  79      66  4.08  1.94  18.9     1     1     4     1
#> # … with 27 more rows

Chain these functions together with the pipe operator %>% to achieve linear/tidyverse-style excellence.

mtcars %>%
  dplyr::filter(gear == 4) %>%
  dplyr::select(cyl, wt, mpg) %>%
  dplyr::arrange(mpg)
#> # A tibble: 12 x 3
#>     cyl    wt   mpg
#>   <dbl> <dbl> <dbl>
#> 1     6  3.44  17.8
#> 2     6  3.44  19.2
#> 3     6  2.62  21  
#> 4     6  2.88  21  
#> 5     4  2.78  21.4
#> # … with 7 more rows

4. Mutate variables

For data wrangling, use dplyr::mutate() to easily transform and/or add new variables to an existing data frame.

mtcars %>%
  dplyr::mutate(mpg_per_cyl = mpg / cyl,
    car = row.names(mtcars)) %>%
  dplyr::select(car, mpg, cyl, mpg_per_cyl)
#> # A tibble: 32 x 4
#>   car     mpg   cyl mpg_per_cyl
#>   <chr> <dbl> <dbl>       <dbl>
#> 1 1      21       6        3.5 
#> 2 2      21       6        3.5 
#> 3 3      22.8     4        5.7 
#> 4 4      21.4     6        3.57
#> 5 5      18.7     8        2.34
#> # … with 27 more rows
…
6. Join and bind

newdata <- tibble::tibble(
  cyl = c(4, 6, 8),
  avg_wt = c(2.5, 3.0, 3.5)
)
dplyr::left_join(mtcars, newdata)
#> Joining, by = "cyl"
#> # A tibble: 32 x 12
#>     mpg   cyl  disp    hp  drat    wt  qsec    vs    am  gear  carb avg_wt
#>   <dbl> <dbl> <dbl> <dbl> <dbl> <dbl> <dbl> <dbl> <dbl> <dbl> <dbl>  <dbl>
#> 1  21       6   160   110  3.9   2.62  16.5     0     1     4     4    3  
#> 2  21       6   160   110  3.9   2.88  17.0     0     1     4     4    3  
#> 3  22.8     4   108    93  3.85  2.32  18.6     1     1     4     1    2.5
#> 4  21.4     6   258   110  3.08  3.22  19.4     1     0     3     1    3  
#> 5  18.7     8   360   175  3.15  3.44  17.0     0     0     3     2    3.5
#> # … with 27 more rows
…
