Faster code with Rcpp
…
  Informatics Institute

  University of Missouri

      Faster code with Rcpp

      @kearneymw · Apr 10, 2019 · 6 min read

Recently I was asked if I could add to {rtweet} some basic functions for converting Twitter data into network data objects. I thought this was a reasonable request and a good opportunity for me to learn more about network analysis. But the task of converting Twitter data into network-friendly objects is something that has, at least for me, been really slow and inefficient. So, for the past several weeks, I’ve been slowly working toward what I think believe a simple but efficient solution. Hence, the purpose of this blog post is to document what I’ve done.

The problem

The ultimate task at issue is converting Twitter data1 into a network or network-friendly data object. Thus, the immediate problem is quickly and efficiently unrolling the connections (e.g., mentions) from one user to zero or more other users. In other words, the problem is figure out how to convert this recursive data frame:

#> # A tibble: 163 x 2
#>    user_id mentions_user_id
#>    <chr>   <list>          
#>  1 5685812 <chr [1]>       
#>  2 5685812 <chr [2]>       
#>  3 5685812 <chr [1]>       
#>  4 5685812 <chr [1]>       
#>  5 5685812 <chr [2]>       
#>  6 5685812 <chr [1]>       
#>  7 5685812 <chr [1]>       
#>  8 5685812 <chr [1]>       
#>  9 5685812 <chr [1]>       
#> 10 5685812 <chr [1]>       
#> # … with 153 more rows

into a desired output (with from and to-like columns) that looks something like this:

tibble::as_tibble(unroll_connections2(d))
#> # A tibble: 220 x 2
#>    from    to                 
#>    <chr>   <chr>              
#>  1 5685812 2973406683         
#>  2 5685812 215035672          
#>  3 5685812 1051975721885798402
#>  4 5685812 1015516068717170688
#>  5 5685812 2801252524         
#>  6 5685812 15184835           
#>  7 5685812 260399941          
#>  8 5685812 17581779           
#>  9 5685812 870078805381132288 
#> 10 5685812 4069028055         
#> # … with 210 more rows
…
